[
    {
        "path": "404.html",
        "type": "file",
        "md5": "4f8b17417002f331628d5c3576d92881"
    },
    {
        "path": "/assets/css/editor.css",
        "type": "file",
        "md5": "e5909a88ba1158a79ba2dbf82d6b2d86"
    },
    {
        "path": "/assets/css/main.css",
        "type": "file",
        "md5": "56efcaf74996596f564d8bad02778d48"
    },
    {
        "path": "/assets/css/photoswipe.css",
        "type": "file",
        "md5": "357f87f4e9502a5318d89e8e76e0a344"
    },
    {
        "path": "/assets/css/style.css",
        "type": "file",
        "md5": "1d9126d5c592483966037cf187b30969"
    },
    {
        "path": "/assets/js/photoswipe-ui-default.min.js",
        "type": "file",
        "md5": "d067f0883540b1ddda0e2c9ad1b14260"
    },
    {
        "path": "/assets/js/photoswipe.min.js",
        "type": "file",
        "md5": "017385b552f7e0d979e2e2fe6f324015"
    },
    {
        "path": "/assets/js/scripts.js",
        "type": "file",
        "md5": "932f325ea2f7fb1467e84c97f137e0f9"
    },
    {
        "path": "/assets/js/scripts.min.js",
        "type": "file",
        "md5": "f4c4d35432d0e17d212f2fae4e0f8247"
    },
    {
        "path": "/assets/js/svg-fix.js",
        "type": "file",
        "md5": "7c0d2bb7276904b382e80bf2d85e8a96"
    },
    {
        "path": "/assets/js/svg-map.js",
        "type": "file",
        "md5": "350bb511eba46f390e88bbea74abb0ac"
    },
    {
        "path": "/assets/svg/gallery-icons-dark.svg",
        "type": "file",
        "md5": "452594838e74a3df91ad4a20cf53c831"
    },
    {
        "path": "/assets/svg/gallery-icons-light.svg",
        "type": "file",
        "md5": "ca77079e0fe8270a7447d7f1f5d543b0"
    },
    {
        "path": "/assets/svg/search.svg",
        "type": "file",
        "md5": "a5bb83b82b98f41b359f20dbf9db6e44"
    },
    {
        "path": "/assets/svg/svg-map.svg",
        "type": "file",
        "md5": "3c5bef20cd9e16841afe49cf089a6c20"
    },
    {
        "path": "/authors/bruno/index.html",
        "type": "file",
        "md5": "749d05528c9d8215f6b692732db439e0"
    },
    {
        "path": "/bla-bla-bla-bla-bla-bla/index.html",
        "type": "file",
        "md5": "4ace89d998887e10d9af58fb19d72b55"
    },
    {
        "path": "feed.json",
        "type": "file",
        "md5": "f0fe4eca7fccf67b9b33bd6306cf3175"
    },
    {
        "path": "feed.xml",
        "type": "file",
        "md5": "8cec988f927f6ea7a2249cc3950709c2"
    },
    {
        "path": "files.publii.json",
        "type": "file",
        "md5": "55cdde7781f5e903902c3cc9b998cb8b"
    },
    {
        "path": "index.html",
        "type": "file",
        "md5": "cbe4a08b5ba5f895bd0c7ee483c61b2a"
    },
    {
        "path": "/media/posts/1/nope.jpg",
        "type": "file",
        "md5": "7ae88aa08ecbb3462dc9107e9b5495f2"
    },
    {
        "path": "/media/posts/1/responsive/nope-2xl.jpg",
        "type": "file",
        "md5": "d9f899f00a199bdce659f4b917242c54"
    },
    {
        "path": "/media/posts/1/responsive/nope-lg.jpg",
        "type": "file",
        "md5": "d9f899f00a199bdce659f4b917242c54"
    },
    {
        "path": "/media/posts/1/responsive/nope-md.jpg",
        "type": "file",
        "md5": "d9f899f00a199bdce659f4b917242c54"
    },
    {
        "path": "/media/posts/1/responsive/nope-sm.jpg",
        "type": "file",
        "md5": "d9f899f00a199bdce659f4b917242c54"
    },
    {
        "path": "/media/posts/1/responsive/nope-xl.jpg",
        "type": "file",
        "md5": "d9f899f00a199bdce659f4b917242c54"
    },
    {
        "path": "/media/posts/1/responsive/nope-xs.jpg",
        "type": "file",
        "md5": "ba842f03d0a0a7fa51ea7a431ddbb10d"
    },
    {
        "path": "search.html",
        "type": "file",
        "md5": "0e6a0ce9714bda93e3e4d33317c23a55"
    },
    {
        "path": "sitemap.xml",
        "type": "file",
        "md5": "3105ef0f150b06526fcd658c90515b2c"
    },
    {
        "path": "sitemap.xsl",
        "type": "file",
        "md5": "51a7bcec43fa1ef0366100d5c2edbe75"
    }
]